
<svg width="8px" height="8px" viewBox="0 0 8 8" version="1.1" xmlns="http://www.w3.org/2000/svg" xmlns:xlink="http://www.w3.org/1999/xlink">
    <g id="Landing" stroke="none" stroke-width="1" fill="none" fill-rule="evenodd">
        <g id="Artboard" transform="translate(-286.000000, -197.000000)">
            <g id="Group" transform="translate(185.000000, 186.000000)">
                <g id="Group" transform="translate(101.000000, 9.000000)">
                    <rect id="box" x="0" y="0" width="8" height="8"></rect>
                    <polygon id="icon" fill="#333333" points="0 2 8 2 4 7"></polygon>
                </g>
            </g>
        </g>
    </g>
</svg>