%%raw("import 'flag-icons/css/flag-icons.min.css'")
%%raw("import './style.styl'")

ReactDOM.render(
  <React.StrictMode> <App /> </React.StrictMode>,
  ReactDOM.querySelector("#root")->Belt.Option.getExn,
)
